…
Check FE2:


```r
FE_1 <- fixef(zz, effect = "time")
FE_2 <- fixef(zz2, effect = "time")
FE_df_1 <- tibble(fe = names(FE_1), value = FE_1) %>% 
  mutate(year = as.integer(fe))
FE_df_2 <- tibble(fe = names(FE_2), value = FE_2) %>% 
  separate(fe, c("year", "region"), remove = FALSE, convert = TRUE)
FE_df_2
```

```
## # A tibble: 153 x 4
##    fe      year region   value
##    <chr>  <int>  <int>   <dbl>
##  1 1970_1  1970      1   2520.
##  2 1970_2  1970      2  14314.
##  3 1970_3  1970      3   7649.
##  4 1970_4  1970      4  -2634.
##  5 1970_5  1970      5   1921.
##  6 1970_6  1970      6  -7259.
##  7 1970_7  1970      7  15484.
##  8 1970_8  1970      8  -1846.
##  9 1970_9  1970      9 -17478.
## 10 1971_1  1971      1   1713.
## # … with 143 more rows
```
…
FE_df_both <- rbind(select(FE_df_1, -fe),
                    FE_df_2_ave) %>% 
  mutate(type = rep(c("FE_1", "FE_2"), each = nrow(FE_df_1)))

FE_df_both
```

```
## # A tibble: 34 x 3
##    value  year type 
##    <dbl> <int> <chr>
##  1 2353.  1970 FE_1 
##  2 1640.  1971 FE_1 
##  3 2663.  1972 FE_1 
##  4 4164.  1973 FE_1 
##  5 2437.  1974 FE_1 
##  6  149.  1975 FE_1 
##  7 1537.  1976 FE_1 
##  8 3314.  1977 FE_1 
##  9 5733.  1978 FE_1 
## 10 6460.  1979 FE_1 
## # … with 24 more rows
```
…
