…
df <-  sim_dat()
df
```

```
## # A tibble: 1,000 x 4
##           y      x n_order n_row
##       <dbl>  <dbl>   <dbl> <int>
##  1  0.0471  -2.55      288     1
##  2  2.13     3.46      794     2
##  3  0.480   -1.09      415     3
##  4  2.23     4.60      885     4
##  5  2.12     5.29      940     5
##  6 -0.00292 -5.45       43     6
##  7  1.29     0.337     534     7
##  8  2.09     4.71      902     8
##  9  1.53     0.617     560     9
## 10  0.737   -0.521     463    10
## # ... with 990 more rows
```
…
